\relax 
\providecommand\hyper@newdestlabel[2]{}
\providecommand\HyperFirstAtBeginDocument{\AtBeginDocument}
\HyperFirstAtBeginDocument{\ifx\hyper@anchor\@undefined
\global\let\oldcontentsline\contentsline
\gdef\contentsline#1#2#3#4{\oldcontentsline{#1}{#2}{#3}}
\global\let\oldnewlabel\newlabel
\gdef\newlabel#1#2{\newlabelxx{#1}#2}
\gdef\newlabelxx#1#2#3#4#5#6{\oldnewlabel{#1}{{#2}{#3}}}
\AtEndDocument{\ifx\hyper@anchor\@undefined
\let\contentsline\oldcontentsline
\let\newlabel\oldnewlabel
\fi}
\fi}
\global\let\hyper@last\relax 
\gdef\HyperFirstAtBeginDocument#1{#1}
\providecommand\HyField@AuxAddToFields[1]{}
\providecommand\HyField@AuxAddToCoFields[2]{}
\@writefile{toc}{\contentsline {chapter}{Chapter 1 - Introduction}{5}{chapter*.2}}
\@writefile{lof}{\addvspace {10\p@ }}
\@writefile{lot}{\addvspace {10\p@ }}
\newlabel{ch:1}{{}{5}{Chapter 1 - Introduction}{chapter*.2}{}}
\@writefile{toc}{\contentsline {chapter}{Chapter 2 - Optical Absorption}{7}{chapter*.3}}
\@writefile{lof}{\addvspace {10\p@ }}
\@writefile{lot}{\addvspace {10\p@ }}
\newlabel{ch:2}{{}{7}{Chapter 2 - Optical Absorption}{chapter*.3}{}}
\@writefile{toc}{\contentsline {chapter}{Chapter 3 - Optical Scattering}{9}{chapter*.4}}
\@writefile{lof}{\addvspace {10\p@ }}
\@writefile{lot}{\addvspace {10\p@ }}
\newlabel{ch:3}{{}{9}{Chapter 3 - Optical Scattering}{chapter*.4}{}}
\@writefile{toc}{\contentsline {chapter}{Chapter 4 - Light Propagation in Tissue}{11}{chapter*.5}}
\@writefile{lof}{\addvspace {10\p@ }}
\@writefile{lot}{\addvspace {10\p@ }}
\newlabel{ch:4}{{}{11}{Chapter 4 - Light Propagation in Tissue}{chapter*.5}{}}
\@writefile{toc}{\contentsline {section}{\textbf  {Terminology}}{11}{section*.6}}
\@writefile{toc}{\contentsline {subsection}{Radiance}{11}{subsection*.7}}
\@writefile{toc}{\contentsline {subsection}{Flux Vector and Fluence Rate}{11}{subsection*.8}}
\@writefile{toc}{\contentsline {subsection}{Absorbed Power and Energy Densities}{11}{subsection*.9}}
\@writefile{toc}{\contentsline {section}{\textbf  {Radiative Transfer Equation}}{11}{section*.10}}
\@writefile{lof}{\contentsline {figure}{\numberline {1}{\ignorespaces The processes included in the radiative transfer equation (for one direction $\mathbf  {\mathaccentV {hat}45E{s}}$) include photons generated or absorbed within volume $\Delta V$, photons entering or leaving $\Delta V$, and photons (within $\Delta V$) scattered into or out of direction $\mathbf  {\mathaccentV {hat}45E{s}}$}}{12}{section*.10}}
\newlabel{fig:sec4fig10}{{1}{12}{\textbf {Radiative Transfer Equation}}{section*.10}{}}
\@writefile{toc}{\contentsline {section}{\textbf  {Beer-Lamber-Bouguer Law}}{13}{section*.11}}
\@writefile{toc}{\contentsline {section}{\textbf  {Diffuse Approximation}}{13}{section*.12}}
\@writefile{toc}{\contentsline {subsection}{P$_1$ Approximation}{13}{subsection*.13}}
\@writefile{toc}{\contentsline {subsection}{Diffusion Approximation}{14}{subsection*.14}}
\newpmemlabel{^_1}{15}
\@writefile{lof}{\contentsline {figure}{\numberline {2}{\ignorespaces (left) the distribution of the fluence rate from a collimated source, note the collimated region, (middle) the same image with the colourscale changed so the slight increase in fluence rate beneath the surface before it decays is visible, (right) the light distribution can be roughly divided into 2 parts: the region near the surface which remains largely collimated and the deeper region where the diffusion approximation holds}}{15}{subsection*.14}}
\newlabel{fig:sec4fig11}{{2}{15}{Diffusion Approximation}{subsection*.14}{}}
\@writefile{toc}{\contentsline {section}{Monte Carlo Simulation}{16}{section*.15}}
\newpmemlabel{^_2}{16}
\@writefile{lof}{\contentsline {figure}{\numberline {3}{\ignorespaces Flowchart for a very simple Monte Carlo model of light transport. (Boundaries between media of different tissue types are ignored.)}}{16}{section*.15}}
\newlabel{fig:sec4fig12}{{3}{16}{Monte Carlo Simulation}{section*.15}{}}
\@writefile{toc}{\contentsline {chapter}{Chapter 5 - De-excitation Pathways and Bioeffects}{17}{chapter*.16}}
\@writefile{lof}{\addvspace {10\p@ }}
\@writefile{lot}{\addvspace {10\p@ }}
\newlabel{ch:5}{{}{17}{Chapter 5 - De-excitation Pathways and Bioeffects}{chapter*.16}{}}
\bibdata{bibliography}
\bibcite{Tufte2001}{{1}{2001}{{Tufte}}{{}}}
\bibstyle{plainnat}
\@writefile{toc}{\contentsline {chapter}{Bibliography}{19}{chapter*.17}}
\@writefile{lof}{\addvspace {10\p@ }}
\@writefile{lot}{\addvspace {10\p@ }}
\@writefile{toc}{\contentsline {chapter}{Index}{21}{chapter*.18}}
\@writefile{lof}{\addvspace {10\p@ }}
\@writefile{lot}{\addvspace {10\p@ }}
\ttl@finishall
