\relax 
\providecommand\hyper@newdestlabel[2]{}
\providecommand\HyperFirstAtBeginDocument{\AtBeginDocument}
\HyperFirstAtBeginDocument{\ifx\hyper@anchor\@undefined
\global\let\oldcontentsline\contentsline
\gdef\contentsline#1#2#3#4{\oldcontentsline{#1}{#2}{#3}}
\global\let\oldnewlabel\newlabel
\gdef\newlabel#1#2{\newlabelxx{#1}#2}
\gdef\newlabelxx#1#2#3#4#5#6{\oldnewlabel{#1}{{#2}{#3}}}
\AtEndDocument{\ifx\hyper@anchor\@undefined
\let\contentsline\oldcontentsline
\let\newlabel\oldnewlabel
\fi}
\fi}
\global\let\hyper@last\relax 
\gdef\HyperFirstAtBeginDocument#1{#1}
\providecommand\HyField@AuxAddToFields[1]{}
\providecommand\HyField@AuxAddToCoFields[2]{}
\citation{Tufte2001}
\citation{Tufte1990}
\citation{Tufte1997}
\citation{Tufte2006}
\@writefile{toc}{\contentsline {chapter}{The Design of Tufte's Books}{7}{chapter*.3}}
\@writefile{lof}{\addvspace {10\p@ }}
\@writefile{lot}{\addvspace {10\p@ }}
\newlabel{ch:tufte-design}{{}{7}{The Design of Tufte's Books}{chapter*.3}{}}
\newpmemlabel{^_1}{8}
\newpmemlabel{^_2}{8}
\@writefile{toc}{\contentsline {section}{Typefaces}{11}{section*.4}}
\newlabel{sec:typefaces1}{{}{11}{Typefaces}{section*.4}{}}
\newpmemlabel{^_3}{11}
\@writefile{lot}{\contentsline {table}{\numberline {1}{\ignorespaces A list of \LaTeX  {} font sizes as defined by the Tufte-\LaTeX  \xspace  document classes.}}{11}{section*.4}}
\newlabel{tab:font-sizes}{{1}{11}{Typefaces}{section*.4}{}}
\@writefile{toc}{\contentsline {section}{Headings}{11}{section*.5}}
\newlabel{sec:headings1}{{}{11}{Headings}{section*.5}{}}
\newpmemlabel{^_4}{11}
\@writefile{lot}{\contentsline {table}{\numberline {2}{\ignorespaces Heading styles used in \textit  {Beautiful Evidence}\xspace  .}}{11}{section*.5}}
\newlabel{tab:heading-styles}{{2}{11}{Headings}{section*.5}{}}
\@writefile{toc}{\contentsline {paragraph}{Paragraph}{11}{paragraph*.6}}
\@writefile{toc}{\contentsline {section}{Environments}{11}{section*.7}}
\newpmemlabel{^_5}{11}
\@writefile{lot}{\contentsline {table}{\numberline {3}{\ignorespaces Environment styles used in \textit  {Beautiful Evidence}\xspace  .}}{12}{section*.7}}
\newlabel{tab:environment-styles}{{3}{12}{Environments}{section*.7}{}}
\citation{Bringhurst2005}
\citation{Tufte2006}
\@writefile{toc}{\contentsline {chapter}{On the Use of the tufte-book Document Class}{13}{chapter*.8}}
\@writefile{lof}{\addvspace {10\p@ }}
\@writefile{lot}{\addvspace {10\p@ }}
\newlabel{ch:tufte-book}{{}{13}{On the Use of the tufte-book Document Class}{chapter*.8}{}}
\@writefile{toc}{\contentsline {section}{Page Layout}{13}{section*.9}}
\newlabel{sec:page-layout}{{}{13}{Page Layout}{section*.9}{}}
\@writefile{toc}{\contentsline {subsection}{Headings}{13}{subsection*.10}}
\newlabel{sec:headings}{{}{13}{Headings}{subsection*.10}{}}
\newlabel{cmd:newthought}{{}{13}{Headings}{subsection*.10}{}}
\@writefile{toc}{\contentsline {section}{Sidenotes}{13}{section*.11}}
\newlabel{sec:sidenotes}{{}{13}{Sidenotes}{section*.11}{}}
\citation{Tufte2006}
\citation{Tufte1990}
\newlabel{cmd:sidenote}{{}{14}{Sidenotes}{section*.11}{}}
\newlabel{cmd:marginnote}{{}{14}{Sidenotes}{section*.11}{}}
\@writefile{toc}{\contentsline {section}{References}{14}{section*.12}}
\newlabel{cmd:cite}{{}{14}{References}{section*.12}{}}
\newlabel{cmd:bibliography}{{}{14}{References}{section*.12}{}}
\newlabel{cmd:nobibliography}{{}{14}{References}{section*.12}{}}
\@writefile{toc}{\contentsline {section}{Figures and Tables}{15}{section*.13}}
\newlabel{sec:figures-and-tables}{{}{15}{Figures and Tables}{section*.13}{}}
\newlabel{env:figure}{{}{15}{Figures and Tables}{section*.13}{}}
\newlabel{env:tabular}{{}{15}{Figures and Tables}{section*.13}{}}
\newlabel{env:figure*}{{}{15}{Figures and Tables}{section*.13}{}}
\newlabel{env:table*}{{}{15}{Figures and Tables}{section*.13}{}}
\newlabel{env:marginfigure}{{}{15}{Figures and Tables}{section*.13}{}}
\newlabel{env:margintable}{{}{15}{Figures and Tables}{section*.13}{}}
\@writefile{lof}{\contentsline {figure}{\numberline {1}{\ignorespaces This is a margin figure. The helix is defined by $x = \mathop {\mathgroup \symoperators cos}\nolimits (2\pi z)$, $y = \mathop {\mathgroup \symoperators sin}\nolimits (2\pi z)$, and $z = [0, 2.7]$. The figure was drawn using Asymptote (\url  {http://asymptote.sf.net/}).}}{15}{section*.13}}
\newlabel{fig:marginfig}{{1}{15}{Figures and Tables}{section*.13}{}}
\newpmemlabel{^_6}{15}
\@writefile{lof}{\contentsline {figure}{\numberline {2}{\ignorespaces This graph shows $y = \mathop {\mathgroup \symoperators sin}\nolimits x$ from about $x = [-10, 10]$. \emph  {Notice that this figure takes up the full page width.}}}{15}{section*.13}}
\newlabel{fig:fullfig}{{2}{15}{Figures and Tables}{section*.13}{}}
\newpmemlabel{^_7}{15}
\@writefile{lof}{\contentsline {figure}{\numberline {3}{\ignorespaces Hilbert curves of various degrees $n$.}}{15}{section*.13}}
\newlabel{fig:textfig}{{3}{15}{Figures and Tables}{section*.13}{}}
\newlabel{cmd:caption}{{}{15}{Figures and Tables}{section*.13}{}}
\newpmemlabel{^_8}{16}
\@writefile{lot}{\contentsline {table}{\numberline {4}{\ignorespaces Here are the dimensions of the various margins used in the Tufte-handout class.}}{16}{section*.13}}
\newlabel{tab:normaltab}{{4}{16}{Figures and Tables}{section*.13}{}}
\newlabel{err:too-many-floats}{{}{16}{Figures and Tables}{section*.13}{}}
\newlabel{cmd:morefloats}{{}{16}{Figures and Tables}{section*.13}{}}
\newlabel{cmd:FloatBarrier}{{}{17}{Figures and Tables}{section*.13}{}}
\newlabel{cmd:clearpage}{{}{17}{Figures and Tables}{section*.13}{}}
\@writefile{toc}{\contentsline {section}{Captions}{17}{section*.14}}
\@writefile{toc}{\contentsline {paragraph}{Vertical alignment}{17}{paragraph*.15}}
\newlabel{cmd:setfloatalignment}{{}{17}{Vertical alignment}{paragraph*.15}{}}
\@writefile{toc}{\contentsline {paragraph}{Horizontal alignment}{17}{paragraph*.16}}
\newlabel{par:overriding-horizontal}{{}{17}{Horizontal alignment}{paragraph*.16}{}}
\citation{Bringhurst2005}
\newlabel{cmd:forceversofloat}{{}{18}{Horizontal alignment}{paragraph*.16}{}}
\newlabel{cmd:forcerectofloat}{{}{18}{Horizontal alignment}{paragraph*.16}{}}
\@writefile{toc}{\contentsline {section}{Full-width text blocks}{18}{section*.17}}
\newlabel{env:fullwidth}{{}{18}{Full-width text blocks}{section*.17}{}}
\@writefile{toc}{\contentsline {section}{Typography}{18}{section*.18}}
\newlabel{sec:typography}{{}{18}{Typography}{section*.18}{}}
\@writefile{toc}{\contentsline {subsection}{Typefaces}{18}{subsection*.19}}
\newlabel{sec:typefaces}{{}{18}{Typefaces}{subsection*.19}{}}
\@writefile{toc}{\contentsline {subsection}{Letterspacing}{18}{subsection*.20}}
\newlabel{sec:letterspacing}{{}{18}{Letterspacing}{subsection*.20}{}}
\newlabel{cmd:allcaps}{{}{18}{Letterspacing}{subsection*.20}{}}
\newlabel{cmd:smallcaps}{{}{18}{Letterspacing}{subsection*.20}{}}
\newlabel{cmd:textsc}{{}{18}{Letterspacing}{subsection*.20}{}}
\@writefile{toc}{\contentsline {section}{Document Class Options}{19}{section*.21}}
\newlabel{sec:options}{{}{19}{Document Class Options}{section*.21}{}}
\newlabel{clsopt:a4paper}{{}{19}{Document Class Options}{section*.21}{}}
\newlabel{clsopt:sfsidenotes}{{}{19}{Document Class Options}{section*.21}{}}
\newlabel{clsopt:twoside}{{}{19}{Document Class Options}{section*.21}{}}
\newlabel{clsopt:oneside}{{}{19}{Document Class Options}{section*.21}{}}
\newlabel{clsopt:symmetric}{{}{19}{Document Class Options}{section*.21}{}}
\newlabel{clsopt:justified}{{}{19}{Document Class Options}{section*.21}{}}
\newlabel{clsopt:bidi}{{}{19}{Document Class Options}{section*.21}{}}
\newlabel{clsopt:debug}{{}{19}{Document Class Options}{section*.21}{}}
\newlabel{clsopt:nofonts}{{}{19}{Document Class Options}{section*.21}{}}
\newlabel{clsopt:nols}{{}{19}{Document Class Options}{section*.21}{}}
\newlabel{clsopt:notitlepage}{{}{19}{Document Class Options}{section*.21}{}}
\newlabel{clsopt:titlepage}{{}{20}{Document Class Options}{section*.21}{}}
\newlabel{clsopt:notoc}{{}{20}{Document Class Options}{section*.21}{}}
\newlabel{clsopt:nohyper}{{}{20}{Document Class Options}{section*.21}{}}
\@writefile{toc}{\contentsline {chapter}{Customizing Tufte-LaTeX}{21}{chapter*.22}}
\@writefile{lof}{\addvspace {10\p@ }}
\@writefile{lot}{\addvspace {10\p@ }}
\newlabel{ch:customizing}{{}{21}{Customizing Tufte-LaTeX}{chapter*.22}{}}
\@writefile{toc}{\contentsline {section}{File Hooks}{21}{section*.23}}
\newlabel{sec:filehooks}{{}{21}{File Hooks}{section*.23}{}}
\@writefile{toc}{\contentsline {section}{Numbered Section Headings}{21}{section*.24}}
\newlabel{sec:numbered-sections}{{}{21}{Numbered Section Headings}{section*.24}{}}
\citation{pkg-geometry}
\newpmemlabel{^_9}{22}
\@writefile{lot}{\contentsline {table}{\numberline {5}{\ignorespaces Heading levels used with the \texttt  {secnumdepth} counter.}}{22}{section*.24}}
\@writefile{toc}{\contentsline {section}{Changing the Paper Size}{22}{section*.25}}
\newlabel{sec:paper-size}{{}{22}{Changing the Paper Size}{section*.25}{}}
\@writefile{toc}{\contentsline {section}{Customizing Marginal Material}{22}{section*.26}}
\newlabel{sec:marginal-material}{{}{22}{Customizing Marginal Material}{section*.26}{}}
\newlabel{cmd:setsidenotefont}{{}{23}{Customizing Marginal Material}{section*.26}{}}
\newlabel{cmd:setcaptionfont}{{}{23}{Customizing Marginal Material}{section*.26}{}}
\newlabel{cmd:setmarginnotefont}{{}{23}{Customizing Marginal Material}{section*.26}{}}
\newlabel{cmd:setcitationfont}{{}{23}{Customizing Marginal Material}{section*.26}{}}
\@writefile{toc}{\contentsline {chapter}{Compatibility Issues}{25}{chapter*.27}}
\@writefile{lof}{\addvspace {10\p@ }}
\@writefile{lot}{\addvspace {10\p@ }}
\newlabel{ch:compatibility}{{}{25}{Compatibility Issues}{chapter*.27}{}}
\@writefile{toc}{\contentsline {section}{Converting from \texttt  {article} to \texttt  {tufte-handout}}{25}{section*.28}}
\@writefile{toc}{\contentsline {section}{Converting from \texttt  {book} to \texttt  {tufte-book}}{25}{section*.29}}
\@writefile{toc}{\contentsline {chapter}{Troubleshooting and Support}{27}{chapter*.30}}
\@writefile{lof}{\addvspace {10\p@ }}
\@writefile{lot}{\addvspace {10\p@ }}
\newlabel{ch:troubleshooting}{{}{27}{Troubleshooting and Support}{chapter*.30}{}}
\@writefile{toc}{\contentsline {section}{Tufte-\LaTeX  \xspace  Website}{27}{section*.31}}
\newlabel{sec:website}{{}{27}{\TL Website}{section*.31}{}}
\@writefile{toc}{\contentsline {section}{Tufte-\LaTeX  \xspace  Mailing Lists}{27}{section*.32}}
\newlabel{sec:mailing-lists}{{}{27}{\TL Mailing Lists}{section*.32}{}}
\@writefile{toc}{\contentsline {paragraph}{Discussion list}{27}{paragraph*.33}}
\@writefile{toc}{\contentsline {paragraph}{Commits list}{27}{paragraph*.34}}
\@writefile{toc}{\contentsline {section}{Getting Help}{27}{section*.35}}
\newlabel{sec:getting-help}{{}{27}{Getting Help}{section*.35}{}}
\@writefile{toc}{\contentsline {section}{Errors, Warnings, and Informational Messages}{28}{section*.36}}
\newlabel{sec:tl-messages}{{}{28}{Errors, Warnings, and Informational Messages}{section*.36}{}}
\@writefile{toc}{\contentsline {section}{Package Dependencies}{28}{section*.37}}
\newlabel{sec:dependencies}{{}{28}{Package Dependencies}{section*.37}{}}
\bibdata{bibliography}
\bibcite{Bringhurst2005}{{1}{2005}{{Bringhurst}}{{}}}
\bibcite{Tufte1990}{{2}{1990}{{Tufte}}{{}}}
\bibcite{Tufte1997}{{3}{1997}{{Tufte}}{{}}}
\bibcite{Tufte2001}{{4}{2001}{{Tufte}}{{}}}
\bibcite{Tufte2006}{{5}{2006}{{Tufte}}{{}}}
\bibcite{pkg-geometry}{{6}{2008}{{Umeki}}{{}}}
\bibstyle{plainnat}
\@writefile{toc}{\contentsline {chapter}{Bibliography}{31}{chapter*.38}}
\@writefile{lof}{\addvspace {10\p@ }}
\@writefile{lot}{\addvspace {10\p@ }}
\@writefile{toc}{\contentsline {chapter}{Index}{33}{chapter*.39}}
\@writefile{lof}{\addvspace {10\p@ }}
\@writefile{lot}{\addvspace {10\p@ }}
\ttl@finishall
